module gitlab.com/msalcedo2/go-scripts

go 1.22.0

require github.com/aws/aws-sdk-go-v2 v1.25.2

require (
	github.com/aws/aws-sdk-go-v2/credentials v1.17.4 // indirect
	github.com/aws/aws-sdk-go-v2/feature/ec2/imds v1.15.2 // indirect
	github.com/aws/aws-sdk-go-v2/internal/configsources v1.3.2 // indirect
	github.com/aws/aws-sdk-go-v2/internal/endpoints/v2 v2.6.2 // indirect
	github.com/aws/aws-sdk-go-v2/internal/ini v1.8.0 // indirect
	github.com/aws/aws-sdk-go-v2/service/internal/accept-encoding v1.11.1 // indirect
	github.com/aws/aws-sdk-go-v2/service/internal/endpoint-discovery v1.9.3 // indirect
	github.com/aws/aws-sdk-go-v2/service/internal/presigned-url v1.11.2 // indirect
	github.com/aws/aws-sdk-go-v2/service/sso v1.20.1 // indirect
	github.com/aws/aws-sdk-go-v2/service/ssooidc v1.23.1 // indirect
	github.com/aws/aws-sdk-go-v2/service/sts v1.28.1 // indirect
	github.com/jmespath/go-jmespath v0.4.0 // indirect
)

require (
	github.com/aws/aws-sdk-go v1.50.30
	github.com/aws/aws-sdk-go-v2/config v1.27.4
	github.com/aws/aws-sdk-go-v2/service/dynamodb v1.30.2
	github.com/aws/aws-sdk-go-v2/service/sqs v1.31.1
	github.com/aws/smithy-go v1.20.1 // indirect
	google.golang.org/protobuf v1.32.0
)
